{
	"subsystem" : {
		"ref": "/SystemMultipleSubsystems/subsysMultipleSubsystems2",
		"class": "UsesResourcesTest.SecondSubsystemForLogicalSystem"
	},
	"resources": [
		{
			"name": "R4",
			"instances" : [
				{
					"actorRef": "/SystemMultipleSubsystems/subsysMultipleSubsystems2/c",
					"actorClass": "UsesResourcesLib.C",
					"description": "This is the fourth resource in the lib model"
				}
			]
		}
	]
}